<?xml version="1.0" encoding="UTF-8" standalone="no"?>
<svg
   version="1.1"
   id="svg2"
   width="780"
   height="652"
   viewBox="0 0 780 652.00001"
   sodipodi:docname="fig5_b.svg"
   inkscape:version="1.1.1 (3bf5ae0d25, 2021-09-20)"
   xmlns:inkscape="http://www.inkscape.org/namespaces/inkscape"
   xmlns:sodipodi="http://sodipodi.sourceforge.net/DTD/sodipodi-0.dtd"
   xmlns:xlink="http://www.w3.org/1999/xlink"
   xmlns="http://www.w3.org/2000/svg"
   xmlns:svg="http://www.w3.org/2000/svg"
   xmlns:rdf="http://www.w3.org/1999/02/22-rdf-syntax-ns#"
   xmlns:cc="http://creativecommons.org/ns#"
   xmlns:dc="http://purl.org/dc/elements/1.1/">
  <metadata
     id="metadata8">
    <rdf:RDF>
      <cc:Work
         rdf:about="">
        <dc:format>image/svg+xml</dc:format>
        <dc:type
           rdf:resource="http://purl.org/dc/dcmitype/StillImage" />
      </cc:Work>
    </rdf:RDF>
  </metadata>
  <defs
     id="defs6">
    <marker
       inkscape:isstock="true"
       style="overflow:visible"
       id="marker1182"
       refX="0"
       refY="0"
       orient="auto"
       inkscape:stockid="Arrow1Send">
      <path
         transform="matrix(-0.2,0,0,-0.2,-1.2,0)"
         style="fill:#ff0000;fill-opacity:1;fill-rule:evenodd;stroke:#ff0000;stroke-width:1pt;stroke-opacity:1"
         d="M 0,0 5,-5 -12.5,0 5,5 Z"
         id="path1180"
         inkscape:connector-curvature="0" />
    </marker>
    <marker
       inkscape:stockid="Arrow1Send"
       orient="auto"
       refY="0"
       refX="0"
       id="Arrow1Send"
       style="overflow:visible"
       inkscape:isstock="true"
       inkscape:collect="always">
      <path
         id="path836"
         d="M 0,0 5,-5 -12.5,0 5,5 Z"
         style="fill:#ff0000;fill-opacity:1;fill-rule:evenodd;stroke:#ff0000;stroke-width:1pt;stroke-opacity:1"
         transform="matrix(-0.2,0,0,-0.2,-1.2,0)"
         inkscape:connector-curvature="0" />
    </marker>
    <marker
       inkscape:isstock="true"
       style="overflow:visible"
       id="marker1182-9"
       refX="0"
       refY="0"
       orient="auto"
       inkscape:stockid="Arrow1Send">
      <path
         transform="matrix(-0.2,0,0,-0.2,-1.2,0)"
         style="fill:#ff0000;fill-opacity:1;fill-rule:evenodd;stroke:#ff0000;stroke-width:1pt;stroke-opacity:1"
         d="M 0,0 5,-5 -12.5,0 5,5 Z"
         id="path1180-6"
         inkscape:connector-curvature="0" />
    </marker>
    <marker
       inkscape:isstock="true"
       style="overflow:visible"
       id="marker1182-4"
       refX="0"
       refY="0"
       orient="auto"
       inkscape:stockid="Arrow1Send">
      <path
         transform="matrix(-0.2,0,0,-0.2,-1.2,0)"
         style="fill:#ff0000;fill-opacity:1;fill-rule:evenodd;stroke:#ff0000;stroke-width:1pt;stroke-opacity:1"
         d="M 0,0 5,-5 -12.5,0 5,5 Z"
         id="path1180-9"
         inkscape:connector-curvature="0" />
    </marker>
    <marker
       inkscape:isstock="true"
       style="overflow:visible"
       id="marker1182-0"
       refX="0"
       refY="0"
       orient="auto"
       inkscape:stockid="Arrow1Send">
      <path
         transform="matrix(-0.2,0,0,-0.2,-1.2,0)"
         style="fill:#ff0000;fill-opacity:1;fill-rule:evenodd;stroke:#ff0000;stroke-width:1pt;stroke-opacity:1"
         d="M 0,0 5,-5 -12.5,0 5,5 Z"
         id="path1180-1"
         inkscape:connector-curvature="0" />
    </marker>
    <marker
       inkscape:isstock="true"
       style="overflow:visible"
       id="marker1182-4-1"
       refX="0"
       refY="0"
       orient="auto"
       inkscape:stockid="Arrow1Send">
      <path
         transform="matrix(-0.2,0,0,-0.2,-1.2,0)"
         style="fill:#ff0000;fill-opacity:1;fill-rule:evenodd;stroke:#ff0000;stroke-width:1pt;stroke-opacity:1"
         d="M 0,0 5,-5 -12.5,0 5,5 Z"
         id="path1180-9-2"
         inkscape:connector-curvature="0" />
    </marker>
  </defs>
  <sodipodi:namedview
     pagecolor="#ffffff"
     bordercolor="#666666"
     borderopacity="1"
     objecttolerance="10"
     gridtolerance="10"
     guidetolerance="10"
     inkscape:pageopacity="0"
     inkscape:pageshadow="2"
     inkscape:window-width="1920"
     inkscape:window-height="1017"
     id="namedview4"
     showgrid="false"
     inkscape:zoom="2.4815951"
     inkscape:cx="584.30161"
     inkscape:cy="171.4623"
     inkscape:current-layer="layer7"
     fit-margin-top="0"
     fit-margin-left="0"
     fit-margin-right="0"
     fit-margin-bottom="0"
     inkscape:document-rotation="0"
     inkscape:pagecheckerboard="0"
     inkscape:window-x="1912"
     inkscape:window-y="-8"
     inkscape:window-maximized="1" />
  <g
     inkscape:groupmode="layer"
     id="layer4"
     inkscape:label="figure"
     transform="translate(562.06799,1078.8005)"
     style="display:inline"
     sodipodi:insensitive="true">
    <image
       width="780"
       height="652"
       preserveAspectRatio="none"
       xlink:href="fig5.png"
       id="image1151"
       x="-562.06799"
       y="-1078.8005" />
  </g>
  <g
     inkscape:groupmode="layer"
     id="layer2"
     inkscape:label="x_axis"
     style="display:inline;opacity:1"
     transform="translate(562.06799,1078.8005)"
     sodipodi:insensitive="true">
    <path
       style="opacity:1;fill:none;fill-opacity:1;stroke:#ff0000;stroke-width:3;stroke-linecap:butt;stroke-miterlimit:4;stroke-dasharray:none;stroke-dashoffset:0;stroke-opacity:1;marker-end:url(#Arrow1Send)"
       d="M -75.828212,-799.548 H 205.3594"
       id="path819"
       inkscape:connector-curvature="0"
       sodipodi:nodetypes="cc" />
    <g
       id="g1149"
       transform="translate(-179.37403,-1188.1797)">
      <text
         id="text1115"
         y="403.3284"
         x="110.89665"
         style="font-style:normal;font-weight:normal;font-size:24px;line-height:125%;font-family:sans-serif;letter-spacing:0px;word-spacing:0px;fill:#000000;fill-opacity:1;stroke:none;stroke-width:1px;stroke-linecap:butt;stroke-linejoin:miter;stroke-opacity:1"
         xml:space="preserve"><tspan
           style="font-size:10.6667px"
           y="403.3284"
           x="110.89665"
           id="tspan1113"
           sodipodi:role="line">4</tspan></text>
      <path
         inkscape:connector-curvature="0"
         id="path1103"
         d="m 114.2925,380.61526 v 12.46996"
         style="opacity:1;fill:none;fill-opacity:1;stroke:#ff0000;stroke-width:3;stroke-linecap:butt;stroke-miterlimit:4;stroke-dasharray:none;stroke-dashoffset:0;stroke-opacity:1" />
    </g>
    <g
       transform="translate(-248.37848,-1188.1797)"
       id="g1067">
      <text
         xml:space="preserve"
         style="font-style:normal;font-weight:normal;font-size:24px;line-height:125%;font-family:sans-serif;letter-spacing:0px;word-spacing:0px;fill:#000000;fill-opacity:1;stroke:none;stroke-width:1px;stroke-linecap:butt;stroke-linejoin:miter;stroke-opacity:1"
         x="430.69763"
         y="403.3284"
         id="text1063"><tspan
           sodipodi:role="line"
           id="tspan1061"
           x="430.69763"
           y="403.3284"
           style="font-size:10.6667px">20</tspan></text>
      <path
         style="opacity:1;fill:none;fill-opacity:1;stroke:#ff0000;stroke-width:3;stroke-linecap:butt;stroke-miterlimit:4;stroke-dasharray:none;stroke-dashoffset:0;stroke-opacity:1"
         d="m 437.55181,380.61526 v 12.46996"
         id="path1065"
         inkscape:connector-curvature="0" />
    </g>
    <g
       id="g1065"
       transform="translate(-115.44925,-1188.1797)">
      <text
         id="text1061"
         y="403.3284"
         x="110.89665"
         style="font-style:normal;font-weight:normal;font-size:24px;line-height:125%;font-family:sans-serif;letter-spacing:0px;word-spacing:0px;fill:#000000;fill-opacity:1;stroke:none;stroke-width:1px;stroke-linecap:butt;stroke-linejoin:miter;stroke-opacity:1"
         xml:space="preserve"><tspan
           style="font-size:10.6667px"
           y="403.3284"
           x="110.89665"
           id="tspan1059"
           sodipodi:role="line">8</tspan></text>
      <path
         inkscape:connector-curvature="0"
         id="path1063"
         d="m 114.2925,380.61526 v 12.46996"
         style="opacity:1;fill:none;fill-opacity:1;stroke:#ff0000;stroke-width:3;stroke-linecap:butt;stroke-miterlimit:4;stroke-dasharray:none;stroke-dashoffset:0;stroke-opacity:1" />
    </g>
    <g
       id="g1073"
       transform="translate(-52.276942,-1188.1797)">
      <text
         id="text1069"
         y="403.3284"
         x="110.89665"
         style="font-style:normal;font-weight:normal;font-size:24px;line-height:125%;font-family:sans-serif;letter-spacing:0px;word-spacing:0px;fill:#000000;fill-opacity:1;stroke:none;stroke-width:1px;stroke-linecap:butt;stroke-linejoin:miter;stroke-opacity:1"
         xml:space="preserve"><tspan
           style="font-size:10.6667px"
           y="403.3284"
           x="110.89665"
           id="tspan1067"
           sodipodi:role="line">12</tspan></text>
      <path
         inkscape:connector-curvature="0"
         id="path1071"
         d="m 114.2925,380.61526 v 12.46996"
         style="opacity:1;fill:none;fill-opacity:1;stroke:#ff0000;stroke-width:3;stroke-linecap:butt;stroke-miterlimit:4;stroke-dasharray:none;stroke-dashoffset:0;stroke-opacity:1" />
    </g>
    <g
       id="g1081"
       transform="translate(10.553768,-1188.1797)">
      <text
         id="text1077"
         y="403.3284"
         x="110.89665"
         style="font-style:normal;font-weight:normal;font-size:24px;line-height:125%;font-family:sans-serif;letter-spacing:0px;word-spacing:0px;fill:#000000;fill-opacity:1;stroke:none;stroke-width:1px;stroke-linecap:butt;stroke-linejoin:miter;stroke-opacity:1"
         xml:space="preserve"><tspan
           style="font-size:10.6667px"
           y="403.3284"
           x="110.89665"
           id="tspan1075"
           sodipodi:role="line">16</tspan></text>
      <path
         inkscape:connector-curvature="0"
         id="path1079"
         d="m 114.2925,380.61526 v 12.46996"
         style="opacity:1;fill:none;fill-opacity:1;stroke:#ff0000;stroke-width:3;stroke-linecap:butt;stroke-miterlimit:4;stroke-dasharray:none;stroke-dashoffset:0;stroke-opacity:1" />
    </g>
  </g>
  <g
     inkscape:groupmode="layer"
     id="layer1"
     inkscape:label="y_axis"
     style="display:inline;opacity:1"
     transform="translate(562.06799,1078.8005)"
     sodipodi:insensitive="true">
    <path
       style="fill:none;fill-opacity:1;stroke:#ff0000;stroke-width:3;stroke-linecap:butt;stroke-miterlimit:4;stroke-dasharray:none;stroke-dashoffset:0;stroke-opacity:1;marker-end:url(#marker1182-0)"
       d="M -65.115242,-795.28682 V -1076.4758"
       id="path1172"
       inkscape:connector-curvature="0"
       sodipodi:nodetypes="cc" />
    <g
       id="g1272"
       transform="translate(-169.60991,-1157.8623)">
      <path
         inkscape:connector-curvature="0"
         id="path1208"
         d="M 98.259695,358.34747 H 110.72966"
         style="opacity:1;fill:none;fill-opacity:1;stroke:#ff0000;stroke-width:3;stroke-linecap:butt;stroke-miterlimit:4;stroke-dasharray:none;stroke-dashoffset:0;stroke-opacity:1" />
      <text
         id="text1222"
         y="363.19122"
         x="67.308731"
         style="font-style:normal;font-weight:normal;font-size:24px;line-height:125%;font-family:sans-serif;letter-spacing:0px;word-spacing:0px;fill:#000000;fill-opacity:1;stroke:none;stroke-width:1px;stroke-linecap:butt;stroke-linejoin:miter;stroke-opacity:1"
         xml:space="preserve"><tspan
           style="font-size:13.3333px"
           y="363.19122"
           x="67.308731"
           id="tspan1220"
           sodipodi:role="line">0</tspan></text>
    </g>
    <g
       transform="translate(-169.60991,-1184.615)"
       id="g1321">
      <path
         inkscape:connector-curvature="0"
         id="path1315"
         d="M 98.259695,299.30108 H 110.72966"
         style="opacity:1;fill:none;fill-opacity:1;stroke:#ff0000;stroke-width:3;stroke-linecap:butt;stroke-miterlimit:4;stroke-dasharray:none;stroke-dashoffset:0;stroke-opacity:1" />
      <text
         id="text1319"
         y="304.14484"
         x="67.308731"
         style="font-style:normal;font-weight:normal;font-size:24px;line-height:125%;font-family:sans-serif;letter-spacing:0px;word-spacing:0px;fill:#000000;fill-opacity:1;stroke:none;stroke-width:1px;stroke-linecap:butt;stroke-linejoin:miter;stroke-opacity:1"
         xml:space="preserve"><tspan
           style="font-size:13.3333px"
           y="304.14484"
           x="67.308731"
           id="tspan1317"
           sodipodi:role="line">100</tspan></text>
    </g>
    <g
       id="g1009"
       transform="translate(-169.60991,-1267.9245)">
      <path
         style="opacity:1;fill:none;fill-opacity:1;stroke:#ff0000;stroke-width:3;stroke-linecap:butt;stroke-miterlimit:4;stroke-dasharray:none;stroke-dashoffset:0;stroke-opacity:1"
         d="M 98.259695,299.30108 H 110.72966"
         id="path1003"
         inkscape:connector-curvature="0" />
      <text
         xml:space="preserve"
         style="font-style:normal;font-weight:normal;font-size:24px;line-height:125%;font-family:sans-serif;letter-spacing:0px;word-spacing:0px;fill:#000000;fill-opacity:1;stroke:none;stroke-width:1px;stroke-linecap:butt;stroke-linejoin:miter;stroke-opacity:1"
         x="59.252487"
         y="304.14484"
         id="text1007"><tspan
           sodipodi:role="line"
           id="tspan1005"
           x="59.252487"
           y="304.14484"
           style="font-size:13.3333px">200</tspan></text>
    </g>
    <g
       id="g6091"
       transform="translate(-169.60991,-1351.5078)">
      <path
         style="opacity:1;fill:none;fill-opacity:1;stroke:#ff0000;stroke-width:3;stroke-linecap:butt;stroke-miterlimit:4;stroke-dasharray:none;stroke-dashoffset:0;stroke-opacity:1"
         d="M 98.259695,299.30108 H 110.72966"
         id="path6085"
         inkscape:connector-curvature="0" />
      <text
         xml:space="preserve"
         style="font-style:normal;font-weight:normal;font-size:24px;line-height:125%;font-family:sans-serif;letter-spacing:0px;word-spacing:0px;fill:#000000;fill-opacity:1;stroke:none;stroke-width:1px;stroke-linecap:butt;stroke-linejoin:miter;stroke-opacity:1"
         x="59.78957"
         y="304.14484"
         id="text6089"><tspan
           sodipodi:role="line"
           id="tspan6087"
           x="59.78957"
           y="304.14484"
           style="font-size:13.3333px">300</tspan></text>
    </g>
  </g>
  <g
     inkscape:groupmode="layer"
     id="layer3"
     inkscape:label="1"
     transform="translate(-4.1576568,-2.4647629)"
     style="display:inline">
    <path
       style="fill:none;stroke:#ab0000;stroke-width:1px;stroke-linecap:butt;stroke-linejoin:miter;stroke-opacity:1"
       d="m 501.14412,281.75039 h 0.72234 0.72234 0.72234 0.72233 0.72234 0.72234 0.72234 0.72234 0.72234 0.72234 0.72234 0.72234 0.72233 0.72234 0.72234 0.72234 l 7.45118,-2.4556 7.32034,-7.20695 7.21945,-11.28155 7.14849,-14.67945 7.10749,-17.4006 7.09643,-19.44505 7.11532,-20.81275 7.16416,-21.50374 7.24295,-21.51801 7.35168,-20.85553 7.49036,-19.51635 7.65898,-17.500431 7.85756,-14.80779 8.08608,-11.438423 8.34455,-7.392331 8.63297,-2.669513 8.55431,2.522046 8.28919,7.277478 8.03089,11.355097 7.77946,14.7549 7.53485,17.476887 7.2971,19.52107 7.0662,20.88743 6.84212,21.57597 6.62491,21.58671 6.41453,20.91962 6.21099,19.57473 6.01431,17.55201 5.82446,14.85149 5.64147,11.47315 5.4653,7.417 5.296,2.68303 0.81305,0.014 0.81306,0.0141 0.81305,0.0141 0.81305,0.014 0.81306,0.014 0.81305,0.014 0.81306,0.014 0.81305,0.014 0.81305,0.0141 0.81306,0.014 0.81305,0.014 0.81305,0.014 0.81306,0.014 0.81305,0.0141 0.81306,0.014 0.81305,0.0141"
       id="path13337"
       sodipodi:nodetypes="ccccccccccccccccccccccccccccccccccccccccccccccccccccccccccccccccc" />
  </g>
  <g
     inkscape:groupmode="layer"
     id="layer5"
     inkscape:label="10"
     style="display:inline">
    <path
       style="display:inline;fill:none;stroke:#ab0000;stroke-width:1px;stroke-linecap:butt;stroke-linejoin:miter;stroke-opacity:1"
       d="m 496.98646,279.28563 h 0.72234 0.72234 0.72234 0.72233 0.72234 0.72234 0.72234 0.72234 0.72234 0.72234 0.72234 0.72234 0.72233 0.72234 0.72234 0.72234 l 6.47405,-1.36988 6.13237,-3.9305 5.82851,-6.23437 5.56249,-8.28149 5.3343,-10.07189 5.14394,-11.60553 4.99142,-12.88242 4.87672,-13.90259 4.79987,-14.66601 4.76084,-15.17267 4.75964,-15.42261 4.79628,-15.41579 4.87074,-15.15224 4.98305,-14.63194 5.13318,-13.85491 5.32115,-12.821115 2.00566,-4.421042 2.01348,-4.239478 2.0225,-4.043788 2.03272,-3.833973 2.04413,-3.610031 2.05674,-3.371963 2.07053,-3.119769 2.08553,-2.85345 2.10172,-2.573003 2.1191,-2.278432 2.13768,-1.969733 2.15745,-1.64691 2.17842,-1.309959 2.20058,-0.958884 2.22394,-0.593682 2.24849,-0.214353 9.44927,2.473405 9.01945,7.147071 8.61124,11.154637 8.22462,14.496106 7.85961,17.171476 7.51619,19.18074 7.19439,20.52392 6.89417,21.20099 6.61557,21.21196 6.35855,20.55683 6.12315,19.23561 5.90934,17.24829 5.71713,14.59486 5.54653,11.27534 5.39753,7.28972 5.27012,2.638 0.81305,0.014 0.81306,0.014 0.81305,0.0141 0.81305,0.014 0.81306,0.014 0.81305,0.014 0.81306,0.014 0.81305,0.0141 0.81305,0.014 0.81306,0.014 0.81305,0.014 0.81305,0.014 0.81306,0.014 0.81305,0.0141 0.81306,0.014 0.81305,0.014"
       id="path5532"
       sodipodi:nodetypes="ccccccccccccccccccccccccccccccccccccccccccccccccccccccccccccccccccccccccccccccccc" />
  </g>
  <g
     inkscape:groupmode="layer"
     id="layer6"
     inkscape:label="13"
     style="display:inline">
    <path
       style="display:inline;fill:none;stroke:#ab0000;stroke-width:1px;stroke-linecap:butt;stroke-linejoin:miter;stroke-opacity:1"
       d="m 496.98646,279.28563 h 0.72234 0.72234 0.72234 0.72233 0.72234 0.72234 0.72234 0.72234 0.72234 0.72234 0.72234 0.72234 0.72233 0.72234 0.72234 0.72234 l 7.59531,-2.58808 7.17566,-5.95702 6.79011,-8.85902 6.43867,-11.29407 6.12132,-13.2622 5.83809,-14.76337 5.58895,-15.79761 5.37392,-16.36491 5.19299,-16.46526 5.04616,-16.09868 4.93343,-15.26515 4.85482,-13.96468 4.81029,-12.19727 4.79988,-9.96292 4.82357,-7.261632 4.88135,-4.0934 1.38891,-0.489354 1.57733,-0.245734 1.75191,-0.01945 1.91262,0.189508 2.05947,0.381129 2.19245,0.555417 2.31157,0.712374 2.41683,0.851996 2.50824,0.974286 2.58577,1.079243 2.64944,1.166867 2.69925,1.23716 2.73521,1.29012 2.7573,1.32574 2.76552,1.34404 2.75988,1.34499 2.66269,1.24766 2.71036,1.18908 2.7377,1.14302 2.74474,1.10945 2.73146,1.0884 2.69787,1.07985 2.64396,1.08382 2.56974,1.10028 2.4752,1.12925 2.36035,1.17074 2.22519,1.22472 2.06971,1.29123 1.89391,1.37022 1.6978,1.46173 1.48139,1.56575 1.24464,1.68228 4.15433,7.37378 4.08853,8.8848 4.0342,10.13586 3.99137,11.12698 3.96003,11.85813 3.94016,12.32934 3.9318,12.5406 3.93491,12.49189 3.9495,12.18324 3.9756,11.61463 4.01317,10.78606 4.06223,9.69755 4.12277,8.34909 4.19481,6.74065 4.27833,4.87229 4.37334,2.74395 h 0.80593 0.80594 0.80593 0.80593 0.80594 0.80593 0.80593 0.80594 0.80593 0.80593 0.80593 0.80594 0.80593 0.80593 0.80594 0.80593"
       id="path13960"
       sodipodi:nodetypes="ccccccccccccccccccccccccccccccccccccccccccccccccccccccccccccccccccccccccccccccccccccccccccccccccc" />
  </g>
  <g
     inkscape:groupmode="layer"
     id="layer7"
     inkscape:label="16">
    <path
       style="display:inline;fill:none;stroke:#ab0000;stroke-width:1px;stroke-linecap:butt;stroke-linejoin:miter;stroke-opacity:1"
       d="m 496.98646,279.28563 h 0.72234 0.72234 0.72234 0.72233 0.72234 0.72234 0.72234 0.72234 0.72234 0.72234 0.72234 0.72234 0.72233 0.72234 0.72234 0.72234 l 5.59098,-1.97545 5.36752,-3.94797 5.1387,-5.65012 4.90452,-7.08188 4.66498,-8.24327 4.42008,-9.1343 4.16982,-9.75494 3.9142,-10.10521 3.65323,-10.18512 3.38689,-9.99464 3.11519,-9.53379 2.83814,-8.80257 2.55572,-7.80098 2.26795,-6.529 1.97482,-4.98667 1.67632,-3.17394 0.58563,-0.38678 0.89879,0.0521 1.22955,0.44679 1.57795,0.79741 1.94396,1.10393 2.32761,1.36634 2.72887,1.58465 3.14777,1.75885 3.58427,1.88894 4.03841,1.97494 4.51017,2.01681 4.99956,2.01458 5.50656,1.96826 6.03119,1.87782 6.57345,1.74327 7.13332,1.56463 4.26737,0.74421 4.71924,0.66621 5.08093,0.60776 5.35246,0.56885 5.5338,0.54947 5.62498,0.54963 5.62597,0.56934 5.53681,0.60857 5.35745,0.66736 5.08793,0.74568 4.72824,0.84353 4.27836,0.96093 3.73832,1.09787 3.1081,1.25434 2.38771,1.43036 1.57714,1.62591 3.4578,5.70514 3.08504,5.9689 2.76628,6.16099 2.5015,6.28144 2.2907,6.33024 2.1339,6.30737 2.03108,6.21285 1.98225,6.04669 1.98741,5.80887 2.04655,5.4994 2.15968,5.11826 2.32679,4.66549 2.5479,4.14105 2.82299,3.54497 3.15207,2.87722 3.53514,2.13783 h 0.80593 0.80594 0.80593 0.80593 0.80594 0.80593 0.80593 0.80594 0.80593 0.80593 0.80593 0.80594 0.80593 0.80593 0.80594 0.80593"
       id="path5942"
       sodipodi:nodetypes="ccccccccccccccccccccccccccccccccccccccccccccccccccccccccccccccccccccccccccccccccccccccccccccccccc" />
  </g>
</svg>
