<?xml version="1.0" encoding="UTF-8" standalone="no"?>
<svg
   version="1.1"
   id="svg2"
   width="780"
   height="652"
   viewBox="0 0 780 652.00001"
   sodipodi:docname="fig5_a.svg"
   inkscape:version="1.1.1 (3bf5ae0d25, 2021-09-20)"
   xmlns:inkscape="http://www.inkscape.org/namespaces/inkscape"
   xmlns:sodipodi="http://sodipodi.sourceforge.net/DTD/sodipodi-0.dtd"
   xmlns:xlink="http://www.w3.org/1999/xlink"
   xmlns="http://www.w3.org/2000/svg"
   xmlns:svg="http://www.w3.org/2000/svg"
   xmlns:rdf="http://www.w3.org/1999/02/22-rdf-syntax-ns#"
   xmlns:cc="http://creativecommons.org/ns#"
   xmlns:dc="http://purl.org/dc/elements/1.1/">
  <metadata
     id="metadata8">
    <rdf:RDF>
      <cc:Work
         rdf:about="">
        <dc:format>image/svg+xml</dc:format>
        <dc:type
           rdf:resource="http://purl.org/dc/dcmitype/StillImage" />
      </cc:Work>
    </rdf:RDF>
  </metadata>
  <defs
     id="defs6">
    <marker
       inkscape:isstock="true"
       style="overflow:visible"
       id="marker1182"
       refX="0"
       refY="0"
       orient="auto"
       inkscape:stockid="Arrow1Send">
      <path
         transform="matrix(-0.2,0,0,-0.2,-1.2,0)"
         style="fill:#ff0000;fill-opacity:1;fill-rule:evenodd;stroke:#ff0000;stroke-width:1pt;stroke-opacity:1"
         d="M 0,0 5,-5 -12.5,0 5,5 Z"
         id="path1180"
         inkscape:connector-curvature="0" />
    </marker>
    <marker
       inkscape:stockid="Arrow1Send"
       orient="auto"
       refY="0"
       refX="0"
       id="Arrow1Send"
       style="overflow:visible"
       inkscape:isstock="true"
       inkscape:collect="always">
      <path
         id="path836"
         d="M 0,0 5,-5 -12.5,0 5,5 Z"
         style="fill:#ff0000;fill-opacity:1;fill-rule:evenodd;stroke:#ff0000;stroke-width:1pt;stroke-opacity:1"
         transform="matrix(-0.2,0,0,-0.2,-1.2,0)"
         inkscape:connector-curvature="0" />
    </marker>
    <marker
       inkscape:isstock="true"
       style="overflow:visible"
       id="marker1182-9"
       refX="0"
       refY="0"
       orient="auto"
       inkscape:stockid="Arrow1Send">
      <path
         transform="matrix(-0.2,0,0,-0.2,-1.2,0)"
         style="fill:#ff0000;fill-opacity:1;fill-rule:evenodd;stroke:#ff0000;stroke-width:1pt;stroke-opacity:1"
         d="M 0,0 5,-5 -12.5,0 5,5 Z"
         id="path1180-6"
         inkscape:connector-curvature="0" />
    </marker>
    <marker
       inkscape:isstock="true"
       style="overflow:visible"
       id="marker1182-4"
       refX="0"
       refY="0"
       orient="auto"
       inkscape:stockid="Arrow1Send">
      <path
         transform="matrix(-0.2,0,0,-0.2,-1.2,0)"
         style="fill:#ff0000;fill-opacity:1;fill-rule:evenodd;stroke:#ff0000;stroke-width:1pt;stroke-opacity:1"
         d="M 0,0 5,-5 -12.5,0 5,5 Z"
         id="path1180-9"
         inkscape:connector-curvature="0" />
    </marker>
    <marker
       inkscape:isstock="true"
       style="overflow:visible"
       id="marker1182-0"
       refX="0"
       refY="0"
       orient="auto"
       inkscape:stockid="Arrow1Send">
      <path
         transform="matrix(-0.2,0,0,-0.2,-1.2,0)"
         style="fill:#ff0000;fill-opacity:1;fill-rule:evenodd;stroke:#ff0000;stroke-width:1pt;stroke-opacity:1"
         d="M 0,0 5,-5 -12.5,0 5,5 Z"
         id="path1180-1"
         inkscape:connector-curvature="0" />
    </marker>
    <marker
       inkscape:isstock="true"
       style="overflow:visible"
       id="marker1182-4-1"
       refX="0"
       refY="0"
       orient="auto"
       inkscape:stockid="Arrow1Send">
      <path
         transform="matrix(-0.2,0,0,-0.2,-1.2,0)"
         style="fill:#ff0000;fill-opacity:1;fill-rule:evenodd;stroke:#ff0000;stroke-width:1pt;stroke-opacity:1"
         d="M 0,0 5,-5 -12.5,0 5,5 Z"
         id="path1180-9-2"
         inkscape:connector-curvature="0" />
    </marker>
  </defs>
  <sodipodi:namedview
     pagecolor="#ffffff"
     bordercolor="#666666"
     borderopacity="1"
     objecttolerance="10"
     gridtolerance="10"
     guidetolerance="10"
     inkscape:pageopacity="0"
     inkscape:pageshadow="2"
     inkscape:window-width="1920"
     inkscape:window-height="1017"
     id="namedview4"
     showgrid="false"
     inkscape:zoom="2.4815951"
     inkscape:cx="343.93202"
     inkscape:cy="178.31273"
     inkscape:current-layer="layer7"
     fit-margin-top="0"
     fit-margin-left="0"
     fit-margin-right="0"
     fit-margin-bottom="0"
     inkscape:document-rotation="0"
     inkscape:pagecheckerboard="0"
     inkscape:window-x="1912"
     inkscape:window-y="-8"
     inkscape:window-maximized="1" />
  <g
     inkscape:groupmode="layer"
     id="layer4"
     inkscape:label="figure"
     transform="translate(562.06799,1078.8005)"
     style="display:inline"
     sodipodi:insensitive="true">
    <image
       width="780"
       height="652"
       preserveAspectRatio="none"
       xlink:href="fig5.png"
       id="image1151"
       x="-562.06799"
       y="-1078.8005" />
  </g>
  <g
     inkscape:groupmode="layer"
     id="layer2"
     inkscape:label="x_axis"
     style="display:inline;opacity:1"
     transform="translate(562.06799,1078.8005)"
     sodipodi:insensitive="true">
    <path
       style="opacity:1;fill:none;fill-opacity:1;stroke:#ff0000;stroke-width:3;stroke-linecap:butt;stroke-miterlimit:4;stroke-dasharray:none;stroke-dashoffset:0;stroke-opacity:1;marker-end:url(#Arrow1Send)"
       d="m -474.76517,-799.548 h 281.18761"
       id="path819"
       inkscape:connector-curvature="0"
       sodipodi:nodetypes="cc" />
    <g
       id="g1149"
       transform="translate(-578.31099,-1188.1797)">
      <text
         id="text1115"
         y="403.3284"
         x="110.89665"
         style="font-style:normal;font-weight:normal;font-size:24px;line-height:125%;font-family:sans-serif;letter-spacing:0px;word-spacing:0px;fill:#000000;fill-opacity:1;stroke:none;stroke-width:1px;stroke-linecap:butt;stroke-linejoin:miter;stroke-opacity:1"
         xml:space="preserve"><tspan
           style="font-size:10.6667px"
           y="403.3284"
           x="110.89665"
           id="tspan1113"
           sodipodi:role="line">4</tspan></text>
      <path
         inkscape:connector-curvature="0"
         id="path1103"
         d="m 114.2925,380.61526 v 12.46996"
         style="opacity:1;fill:none;fill-opacity:1;stroke:#ff0000;stroke-width:3;stroke-linecap:butt;stroke-miterlimit:4;stroke-dasharray:none;stroke-dashoffset:0;stroke-opacity:1" />
    </g>
    <g
       transform="translate(-647.31544,-1188.1797)"
       id="g1067">
      <text
         xml:space="preserve"
         style="font-style:normal;font-weight:normal;font-size:24px;line-height:125%;font-family:sans-serif;letter-spacing:0px;word-spacing:0px;fill:#000000;fill-opacity:1;stroke:none;stroke-width:1px;stroke-linecap:butt;stroke-linejoin:miter;stroke-opacity:1"
         x="430.69763"
         y="403.3284"
         id="text1063"><tspan
           sodipodi:role="line"
           id="tspan1061"
           x="430.69763"
           y="403.3284"
           style="font-size:10.6667px">20</tspan></text>
      <path
         style="opacity:1;fill:none;fill-opacity:1;stroke:#ff0000;stroke-width:3;stroke-linecap:butt;stroke-miterlimit:4;stroke-dasharray:none;stroke-dashoffset:0;stroke-opacity:1"
         d="m 437.55181,380.61526 v 12.46996"
         id="path1065"
         inkscape:connector-curvature="0" />
    </g>
    <g
       id="g1065"
       transform="translate(-514.38621,-1188.1797)">
      <text
         id="text1061"
         y="403.3284"
         x="110.89665"
         style="font-style:normal;font-weight:normal;font-size:24px;line-height:125%;font-family:sans-serif;letter-spacing:0px;word-spacing:0px;fill:#000000;fill-opacity:1;stroke:none;stroke-width:1px;stroke-linecap:butt;stroke-linejoin:miter;stroke-opacity:1"
         xml:space="preserve"><tspan
           style="font-size:10.6667px"
           y="403.3284"
           x="110.89665"
           id="tspan1059"
           sodipodi:role="line">8</tspan></text>
      <path
         inkscape:connector-curvature="0"
         id="path1063"
         d="m 114.2925,380.61526 v 12.46996"
         style="opacity:1;fill:none;fill-opacity:1;stroke:#ff0000;stroke-width:3;stroke-linecap:butt;stroke-miterlimit:4;stroke-dasharray:none;stroke-dashoffset:0;stroke-opacity:1" />
    </g>
    <g
       id="g1073"
       transform="translate(-451.2139,-1188.1797)">
      <text
         id="text1069"
         y="403.3284"
         x="110.89665"
         style="font-style:normal;font-weight:normal;font-size:24px;line-height:125%;font-family:sans-serif;letter-spacing:0px;word-spacing:0px;fill:#000000;fill-opacity:1;stroke:none;stroke-width:1px;stroke-linecap:butt;stroke-linejoin:miter;stroke-opacity:1"
         xml:space="preserve"><tspan
           style="font-size:10.6667px"
           y="403.3284"
           x="110.89665"
           id="tspan1067"
           sodipodi:role="line">12</tspan></text>
      <path
         inkscape:connector-curvature="0"
         id="path1071"
         d="m 114.2925,380.61526 v 12.46996"
         style="opacity:1;fill:none;fill-opacity:1;stroke:#ff0000;stroke-width:3;stroke-linecap:butt;stroke-miterlimit:4;stroke-dasharray:none;stroke-dashoffset:0;stroke-opacity:1" />
    </g>
    <g
       id="g1081"
       transform="translate(-388.38319,-1188.1797)">
      <text
         id="text1077"
         y="403.3284"
         x="110.89665"
         style="font-style:normal;font-weight:normal;font-size:24px;line-height:125%;font-family:sans-serif;letter-spacing:0px;word-spacing:0px;fill:#000000;fill-opacity:1;stroke:none;stroke-width:1px;stroke-linecap:butt;stroke-linejoin:miter;stroke-opacity:1"
         xml:space="preserve"><tspan
           style="font-size:10.6667px"
           y="403.3284"
           x="110.89665"
           id="tspan1075"
           sodipodi:role="line">16</tspan></text>
      <path
         inkscape:connector-curvature="0"
         id="path1079"
         d="m 114.2925,380.61526 v 12.46996"
         style="opacity:1;fill:none;fill-opacity:1;stroke:#ff0000;stroke-width:3;stroke-linecap:butt;stroke-miterlimit:4;stroke-dasharray:none;stroke-dashoffset:0;stroke-opacity:1" />
    </g>
  </g>
  <g
     inkscape:groupmode="layer"
     id="layer1"
     inkscape:label="y_axis"
     style="display:inline;opacity:1"
     transform="translate(562.06799,1078.8005)"
     sodipodi:insensitive="true">
    <path
       style="fill:none;fill-opacity:1;stroke:#ff0000;stroke-width:3;stroke-linecap:butt;stroke-miterlimit:4;stroke-dasharray:none;stroke-dashoffset:0;stroke-opacity:1;marker-end:url(#marker1182-0)"
       d="M -464.0522,-795.28682 V -1076.4758"
       id="path1172"
       inkscape:connector-curvature="0"
       sodipodi:nodetypes="cc" />
    <g
       id="g1272"
       transform="translate(-568.54687,-1157.8623)">
      <path
         inkscape:connector-curvature="0"
         id="path1208"
         d="M 98.259695,358.34747 H 110.72966"
         style="opacity:1;fill:none;fill-opacity:1;stroke:#ff0000;stroke-width:3;stroke-linecap:butt;stroke-miterlimit:4;stroke-dasharray:none;stroke-dashoffset:0;stroke-opacity:1" />
      <text
         id="text1222"
         y="363.19122"
         x="67.308731"
         style="font-style:normal;font-weight:normal;font-size:24px;line-height:125%;font-family:sans-serif;letter-spacing:0px;word-spacing:0px;fill:#000000;fill-opacity:1;stroke:none;stroke-width:1px;stroke-linecap:butt;stroke-linejoin:miter;stroke-opacity:1"
         xml:space="preserve"><tspan
           style="font-size:13.3333px"
           y="363.19122"
           x="67.308731"
           id="tspan1220"
           sodipodi:role="line">0</tspan></text>
    </g>
    <g
       transform="translate(-568.54687,-1162.3896)"
       id="g1321">
      <path
         inkscape:connector-curvature="0"
         id="path1315"
         d="M 98.259695,299.30108 H 110.72966"
         style="opacity:1;fill:none;fill-opacity:1;stroke:#ff0000;stroke-width:3;stroke-linecap:butt;stroke-miterlimit:4;stroke-dasharray:none;stroke-dashoffset:0;stroke-opacity:1" />
      <text
         id="text1319"
         y="304.14484"
         x="67.308731"
         style="font-style:normal;font-weight:normal;font-size:24px;line-height:125%;font-family:sans-serif;letter-spacing:0px;word-spacing:0px;fill:#000000;fill-opacity:1;stroke:none;stroke-width:1px;stroke-linecap:butt;stroke-linejoin:miter;stroke-opacity:1"
         xml:space="preserve"><tspan
           style="font-size:13.3333px"
           y="304.14484"
           x="67.308731"
           id="tspan1317"
           sodipodi:role="line">0.1</tspan></text>
    </g>
    <g
       id="g1009"
       transform="translate(-568.54687,-1225.7533)">
      <path
         style="opacity:1;fill:none;fill-opacity:1;stroke:#ff0000;stroke-width:3;stroke-linecap:butt;stroke-miterlimit:4;stroke-dasharray:none;stroke-dashoffset:0;stroke-opacity:1"
         d="M 98.259695,299.30108 H 110.72966"
         id="path1003"
         inkscape:connector-curvature="0" />
      <text
         xml:space="preserve"
         style="font-style:normal;font-weight:normal;font-size:24px;line-height:125%;font-family:sans-serif;letter-spacing:0px;word-spacing:0px;fill:#000000;fill-opacity:1;stroke:none;stroke-width:1px;stroke-linecap:butt;stroke-linejoin:miter;stroke-opacity:1"
         x="59.252487"
         y="304.14484"
         id="text1007"><tspan
           sodipodi:role="line"
           id="tspan1005"
           x="59.252487"
           y="304.14484"
           style="font-size:13.3333px">0.2</tspan></text>
    </g>
    <g
       id="g1020"
       transform="translate(-568.54687,-1289.3401)">
      <path
         style="opacity:1;fill:none;fill-opacity:1;stroke:#ff0000;stroke-width:3;stroke-linecap:butt;stroke-miterlimit:4;stroke-dasharray:none;stroke-dashoffset:0;stroke-opacity:1"
         d="M 98.259695,299.30108 H 110.72966"
         id="path1014"
         inkscape:connector-curvature="0" />
      <text
         xml:space="preserve"
         style="font-style:normal;font-weight:normal;font-size:24px;line-height:125%;font-family:sans-serif;letter-spacing:0px;word-spacing:0px;fill:#000000;fill-opacity:1;stroke:none;stroke-width:1px;stroke-linecap:butt;stroke-linejoin:miter;stroke-opacity:1"
         x="59.78957"
         y="304.14484"
         id="text1018"><tspan
           sodipodi:role="line"
           id="tspan1016"
           x="59.78957"
           y="304.14484"
           style="font-size:13.3333px">0.3</tspan></text>
    </g>
    <g
       id="g6091"
       transform="translate(-568.54687,-1351.5078)">
      <path
         style="opacity:1;fill:none;fill-opacity:1;stroke:#ff0000;stroke-width:3;stroke-linecap:butt;stroke-miterlimit:4;stroke-dasharray:none;stroke-dashoffset:0;stroke-opacity:1"
         d="M 98.259695,299.30108 H 110.72966"
         id="path6085"
         inkscape:connector-curvature="0" />
      <text
         xml:space="preserve"
         style="font-style:normal;font-weight:normal;font-size:24px;line-height:125%;font-family:sans-serif;letter-spacing:0px;word-spacing:0px;fill:#000000;fill-opacity:1;stroke:none;stroke-width:1px;stroke-linecap:butt;stroke-linejoin:miter;stroke-opacity:1"
         x="59.78957"
         y="304.14484"
         id="text6089"><tspan
           sodipodi:role="line"
           id="tspan6087"
           x="59.78957"
           y="304.14484"
           style="font-size:13.3333px">0.4</tspan></text>
    </g>
  </g>
  <g
     inkscape:groupmode="layer"
     id="layer3"
     inkscape:label="1"
     transform="translate(-4.1576568,-2.4647629)"
     style="display:inline">
    <path
       style="fill:none;stroke:#ab0000;stroke-width:1px;stroke-linecap:butt;stroke-linejoin:miter;stroke-opacity:1"
       d="m 102.20716,273.70082 h 0.72234 0.72234 0.72234 0.72233 0.72234 0.72234 0.72234 0.72234 0.72234 0.72234 0.72234 0.72233 0.72234 0.72234 0.72234 0.72234 l 5.49607,-13.7016 5.4271,-15.21518 5.41592,-16.40518 5.46255,-17.27161 5.56695,-17.81449 5.72916,-18.03379 5.94915,-17.92952 6.22694,-17.50168 6.56252,-16.75029 6.95589,-15.67531 7.40705,-14.276775 7.916,-12.554666 8.48276,-10.508992 9.10729,-8.139749 9.78962,-5.446938 10.52975,-2.430559 3.18822,-0.09638 3.26929,0.176961 3.32876,0.446656 3.36658,0.712709 3.3828,0.975116 3.37738,1.23388 3.35033,1.488999 3.30168,1.740475 3.23138,1.988305 3.13946,2.232492 3.02593,2.473035 2.89077,2.709933 2.73397,2.943187 2.55557,3.172798 2.35552,3.398763 2.13387,3.621085 6.58128,12.553902 6.09814,12.373173 5.65306,12.21464 5.24602,12.07832 4.87703,11.96419 4.54609,11.87226 4.2532,11.80254 3.99837,11.75503 3.78157,11.7297 3.60283,11.72659 3.46214,11.74567 3.3595,11.78695 3.2949,11.85045 3.26836,11.93613 3.27987,12.04403 3.32942,12.17412 h 0.80593 0.80594 0.80593 0.80593 0.80594 0.80593 0.80593 0.80594 0.80593 0.80593 0.80593 0.80594 0.80593 0.80593 0.80594 0.80593"
       id="path13337"
       sodipodi:nodetypes="ccccccccccccccccccccccccccccccccccccccccccccccccccccccccccccccccccccccccccccccccc" />
  </g>
  <g
     inkscape:groupmode="layer"
     id="layer5"
     inkscape:label="10"
     style="display:inline">
    <path
       style="fill:none;stroke:#ab0000;stroke-width:1px;stroke-linecap:butt;stroke-linejoin:miter;stroke-opacity:1"
       d="m 98.0495,271.23606 h 0.722339 0.722338 0.722343 0.72233 0.72234 0.72234 0.72234 0.72234 0.72234 0.72234 0.72234 0.72234 0.72233 0.72234 0.72234 0.72234 l 5.51435,-13.5539 5.45943,-14.80011 5.42855,-15.76485 5.42171,-16.44809 5.43891,-16.84986 5.48014,-16.97012 5.5454,-16.80892 5.63471,-16.36621 5.74805,-15.64203 5.88542,-14.63635 6.04684,-13.3492 6.23228,-11.780554 6.44177,-9.930422 6.67528,-7.798805 6.93285,-5.385701 7.21443,-2.691111 4.39992,-0.552723 4.64961,-0.218331 4.84362,0.108055 4.98196,0.426436 5.06461,0.736811 5.09161,1.039179 5.06291,1.333543 4.97854,1.619899 4.8385,1.898251 4.64279,2.168595 4.39138,2.430936 4.08432,2.685269 3.72157,2.931596 3.30315,3.169919 2.82905,3.400234 2.29927,3.622545 6.54055,12.458869 5.98304,12.10459 5.4742,11.79731 5.01404,11.53703 4.60255,11.32373 4.23973,11.15744 3.9256,11.03812 3.66013,10.96582 3.44334,10.94049 3.27522,10.96217 3.15578,11.03084 3.08502,11.1465 3.06292,11.30915 3.08951,11.51881 3.16476,11.77545 3.28869,12.07908 h 0.80593 0.80594 0.80593 0.80593 0.80594 0.80593 0.80593 0.80593 0.80594 0.80593 0.80593 0.80594 0.80593 0.80593 0.80594 0.80593"
       id="path13960"
       sodipodi:nodetypes="ccccccccccccccccccccccccccccccccccccccccccccccccccccccccccccccccccccccccccccccccc" />
  </g>
  <g
     inkscape:groupmode="layer"
     id="layer6"
     inkscape:label="13"
     style="display:inline">
    <path
       style="fill:none;stroke:#ab0000;stroke-width:1px;stroke-linecap:butt;stroke-linejoin:miter;stroke-opacity:1"
       d="m 98.0495,271.23606 h 0.722339 0.722338 0.722343 0.72233 0.72234 0.72234 0.72234 0.72234 0.72234 0.72234 0.72234 0.72234 0.72233 0.72234 0.72234 0.72234 l 5.49975,-13.3943 5.40234,-14.34079 5.30899,-15.03501 5.21968,-15.47695 5.13444,-15.66661 5.05325,-15.604 4.97613,-15.28911 4.90305,-14.72194 4.83405,-13.9025 4.76909,-12.83078 4.70819,-11.50679 4.65136,-9.93051 4.59857,-8.101961 4.54985,-6.021135 4.50518,-3.688031 4.46457,-1.102652 2.94242,1.030252 2.83802,2.572397 2.75908,3.892539 2.70558,4.990682 2.67752,5.866819 2.67492,6.52097 2.69776,6.9531 2.74604,7.16324 2.81978,7.15138 2.91895,6.91751 3.04358,6.46165 3.19365,5.78379 3.36917,4.88391 3.57013,3.76205 3.79654,2.41819 4.04839,0.85231 5.29421,-0.52365 4.71309,-1.46837 4.18478,-2.27781 3.70933,-2.95197 3.28671,-3.49086 2.91691,-3.89445 2.59996,-4.16278 2.33584,-4.29581 2.12455,-4.29358 1.9661,-4.15605 1.86048,-3.88324 1.80769,-3.47517 1.80775,-2.9318 1.86063,-2.25315 1.96635,-1.43923 2.1249,-0.49002 2.66938,1.07024 2.93058,3.02928 3.16196,4.81751 3.36351,6.43492 3.53522,7.88149 3.6771,9.15726 3.78914,10.2622 3.87135,11.19632 3.92373,11.95962 3.94628,12.5521 3.93899,12.97375 3.90187,13.22459 3.83491,13.30461 3.73813,13.2138 3.61151,12.95218 3.45505,12.51973 h 0.80593 0.80594 0.80593 0.80593 0.80594 0.80593 0.80593 0.80593 0.80594 0.80593 0.80593 0.80594 0.80593 0.80593 0.80594 0.80593"
       id="path14328"
       sodipodi:nodetypes="ccccccccccccccccccccccccccccccccccccccccccccccccccccccccccccccccccccccccccccccccccccccccccccccccc" />
  </g>
  <g
     inkscape:groupmode="layer"
     id="layer7"
     inkscape:label="16">
    <path
       style="fill:none;stroke:#ab0000;stroke-width:1px;stroke-linecap:butt;stroke-linejoin:miter;stroke-opacity:1"
       d="m 98.0495,271.23606 h 0.722339 0.722338 0.722343 0.72233 0.72234 0.72234 0.72234 0.72234 0.72234 0.72234 0.72234 0.72234 0.72233 0.72234 0.72234 0.72234 l 5.36154,-12.96801 5.00188,-13.13616 4.66757,-13.16336 4.3586,-13.0496 4.07497,-12.7949 3.8167,-12.39924 3.58375,-11.86265 3.37616,-11.1851 3.19391,-10.3666 3.037,-9.40716 2.90544,-8.30676 2.79922,-7.06541 2.71834,-5.68313 2.66281,-4.15988 2.63262,-2.49569 2.62778,-0.69055 1.60061,1.40884 1.58766,3.68853 1.65128,5.64282 1.79147,7.27174 2.00824,8.57528 2.30157,9.55344 2.67147,10.20623 3.11794,10.53364 3.64098,10.53566 4.24059,10.21231 4.91677,9.56358 5.66952,8.58947 6.49883,7.28998 7.40472,5.66511 8.38718,3.71487 9.4462,1.43925 9.80548,-0.6287 8.74058,-2.14306 7.74501,-3.44313 6.8188,-4.52891 5.96191,-5.40039 5.17439,-6.05757 4.45619,-6.50047 3.80735,-6.72906 3.22785,-6.74336 2.71769,-6.54336 2.27688,-6.12908 1.90541,-5.50049 1.60328,-4.65762 1.3705,-3.60043 1.20706,-2.32897 1.11296,-0.84321 1.28152,0.47019 1.50009,1.45163 1.70237,2.40182 1.88834,3.32074 2.05801,4.20841 2.21136,5.06481 2.34842,5.88995 2.46918,6.68384 2.57362,7.44646 2.66178,8.17782 2.73361,8.87793 2.78915,9.54677 2.82838,10.18434 2.85132,10.79067 2.85794,11.36573 2.84826,11.90953 h 0.80593 0.80594 0.80593 0.80593 0.80594 0.80593 0.80593 0.80593 0.80594 0.80593 0.80593 0.80594 0.80593 0.80593 0.80594 0.80593"
       id="path14735"
       sodipodi:nodetypes="ccccccccccccccccccccccccccccccccccccccccccccccccccccccccccccccccccccccccccccccccccccccccccccccccc" />
  </g>
</svg>
